…
homicide_df |> select(city_state, solved, victim_race, victim_age)
```

    ## # A tibble: 39,403 × 4
    ##    city_state      solved victim_race victim_age
    ##    <chr>            <dbl> <chr>            <dbl>
    ##  1 Albuquerque, NM      0 white               15
    ##  2 Albuquerque, NM      0 white               72
    ##  3 Albuquerque, NM      0 white               91
    ##  4 Albuquerque, NM      0 white               56
    ##  5 Albuquerque, NM      1 white               43
    ##  6 Albuquerque, NM      1 white               52
    ##  7 Albuquerque, NM      1 white               22
    ##  8 Albuquerque, NM      1 black               15
    ##  9 Albuquerque, NM      1 black               25
    ## 10 Albuquerque, NM      1 white               20
    ## # ℹ 39,393 more rows
…
